0.03 0
0.09 0
0.15 0
0.21 0
0.27 0
0.33 0
0.39 0
0.45 0
0.51 0
0.57 0
0.63 0
0.69 0
0.75 0
0.81 0
0.87 0
0.93 0
0.99 0
1.05 0
1.11 0
1.17 0
1.23 0
1.29 0
1.35 0
1.41 0
1.47 0
1.53 0
1.59 0
1.65 0
1.71 0
1.77 0
1.83 0
1.89 0
1.95 0
2.01 0
2.07 0
2.13 0
2.19 0
2.25 0
2.31 0
2.37 0
2.43 0
2.49 0
2.55 0
2.61 0
2.67 0
2.73 0
2.79 5.56962e-06
2.85 0.00010008
2.91 0.000596452
2.97 0.00270448
3.03 0.0085544
3.09 0.021768
3.15 0.0450545
3.21 0.080547
3.27 0.130894
3.33 0.192973
3.39 0.265873
3.45 0.347424
3.51 0.433615
3.57 0.522457
3.63 0.609394
3.69 0.692223
3.75 0.770021
3.81 0.836683
3.87 0.894458
3.93 0.943884
3.99 0.988062
4.05 1.03478
4.11 1.10134
4.17 1.22302
4.23 1.464
4.29 1.90803
4.35 2.61494
4.41 3.49703
4.47 4.21331
4.53 4.36875
4.59 3.85837
4.65 2.93692
4.71 1.97937
4.77 1.2602
4.83 0.864914
4.89 0.710617
4.95 0.664078
5.01 0.649278
5.07 0.640612
5.13 0.634513
5.19 0.630369
5.25 0.627204
5.31 0.625419
5.37 0.62475
5.43 0.627649
5.49 0.633748
5.55 0.643478
5.61 0.659606
5.67 0.681512
5.73 0.704149
5.79 0.731994
5.85 0.761093
5.91 0.791542
5.97 0.820537
6.03 0.847832
6.09 0.874216
6.15 0.897764
6.21 0.919463
6.27 0.935332
6.33 0.950373
6.39 0.961191
6.45 0.969857
6.51 0.976613
6.57 0.982595
6.63 0.985541
6.69 0.987875
6.75 0.989758
6.81 0.991816
6.87 0.99285
6.93 0.992958
6.99 0.993792
7.05 0.994221
7.11 0.996187
7.17 0.996046
7.23 0.997995
7.29 1.00049
7.35 1.00306
7.41 1.0053
7.47 1.00894
7.53 1.01157
7.59 1.01441
7.65 1.01808
7.71 1.02126
7.77 1.02457
7.83 1.02922
7.89 1.03402
7.95 1.03923
8.01 1.04447
8.07 1.04962
8.13 1.05524
8.19 1.06114
8.25 1.06549
8.31 1.06909
8.37 1.07341
8.43 1.07811
8.49 1.08201
8.55 1.08392
8.61 1.087
8.67 1.08753
8.73 1.08818
8.79 1.0872
8.85 1.08666
8.91 1.08205
8.97 1.07989
9.03 1.07492
9.09 1.07046
9.15 1.06589
9.21 1.06062
9.27 1.05565
9.33 1.05047
9.39 1.04523
9.45 1.04024
9.51 1.0357
9.57 1.03134
9.63 1.02829
9.69 1.02394
9.75 1.02008
9.81 1.01644
9.87 1.01386
9.93 1.0108
9.99 1.0078
10.05 1.0045
10.11 1.0018
10.17 1.0003
10.23 0.996699
10.29 0.994464
10.35 0.992368
10.41 0.990411
10.47 0.988447
10.53 0.987294
10.59 0.985901
10.65 0.986633
10.71 0.986301
10.77 0.986613
10.83 0.98717
10.89 0.988167
10.95 0.989837
11.01 0.991295
11.07 0.993446
11.13 0.995988
11.19 0.996944
11.25 0.999423
11.31 1.0018
11.37 1.00389
11.43 1.005
11.49 1.0069
11.55 1.00884
11.61 1.00946
11.67 1.0101
11.73 1.01095
11.79 1.01175
11.85 1.01149
11.91 1.01114
11.97 1.01125

