0.03 0
0.09 0
0.15 0
0.21 0
0.27 0
0.33 0
0.39 0
0.45 0
0.51 0
0.57 0
0.63 0
0.69 0
0.75 0
0.81 0
0.87 0
0.93 0
0.99 0
1.05 0
1.11 0
1.17 0
1.23 0
1.29 0
1.35 0
1.41 0
1.47 0
1.53 0
1.59 0
1.65 0
1.71 0
1.77 0
1.83 0
1.89 0
1.95 0
2.01 0
2.07 0
2.13 0
2.19 0
2.25 0
2.31 0
2.37 0
2.43 0
2.49 0
2.55 0
2.61 0
2.67 0
2.73 0
2.79 0
2.85 0
2.91 0
2.97 0
3.03 0
3.09 0
3.15 0
3.21 0
3.27 0
3.33 1.95488e-06
3.39 7.54519e-06
3.45 3.09614e-05
3.51 0.000123167
3.57 0.000481349
3.63 0.00132926
3.69 0.00355506
3.75 0.00815001
3.81 0.0170854
3.87 0.0321005
3.93 0.0550163
3.99 0.0901401
4.05 0.139464
4.11 0.202251
4.17 0.278987
4.23 0.371866
4.29 0.472292
4.35 0.582825
4.41 0.691854
4.47 0.802108
4.53 0.901859
4.59 0.993691
4.65 1.07198
4.71 1.13476
4.77 1.18106
4.83 1.21216
4.89 1.22686
4.95 1.23312
5.01 1.22613
5.07 1.20842
5.13 1.18699
5.19 1.16177
5.25 1.13033
5.31 1.10249
5.37 1.07466
5.43 1.04739
5.49 1.02447
5.55 1.00259
5.61 0.9843
5.67 0.970619
5.73 0.9618
5.79 0.953646
5.85 0.946001
5.91 0.940831
5.97 0.936343
6.03 0.933282
6.09 0.927884
6.15 0.921511
6.21 0.916229
6.27 0.909385
6.33 0.901804
6.39 0.893072
6.45 0.88242
6.51 0.872952
6.57 0.864122
6.63 0.856857
6.69 0.850852
6.75 0.846641
6.81 0.845676
6.87 0.848001
6.93 0.855524
6.99 0.863416
7.05 0.876591
7.11 0.891366
7.17 0.908323
7.23 0.927647
7.29 0.947326
7.35 0.968333
7.41 0.986601
7.47 1.00407
7.53 1.01867
7.59 1.02956
7.65 1.04027
7.71 1.0478
7.77 1.05326
7.83 1.05836
7.89 1.06106
7.95 1.06164
8.01 1.06136
8.07 1.06118
8.13 1.05876
8.19 1.0563
8.25 1.05406
8.31 1.05246
8.37 1.04875
8.43 1.04573
8.49 1.04417
8.55 1.0415
8.61 1.03965
8.67 1.03821
8.73 1.03704
8.79 1.03549
8.85 1.03292
8.91 1.03177
8.97 1.03045
9.03 1.029
9.09 1.02843
9.15 1.02782
9.21 1.02802
9.27 1.02698
9.33 1.0287
9.39 1.02934
9.45 1.03022
9.51 1.03225
9.57 1.03278
9.63 1.03555
9.69 1.03662
9.75 1.03739
9.81 1.03875
9.87 1.03964
9.93 1.03995
9.99 1.04037
10.05 1.04066
10.11 1.03888
10.17 1.03854
10.23 1.03694
10.29 1.03526
10.35 1.03409
10.41 1.0323
10.47 1.02918
10.53 1.02691
10.59 1.02382
10.65 1.02149
10.71 1.01921
10.77 1.01659
10.83 1.01268
10.89 1.01111
10.95 1.00852
11.01 1.00609
11.07 1.00407
11.13 1.00168
11.19 0.998467
11.25 0.996199
11.31 0.992324
11.37 0.990463
11.43 0.988829
11.49 0.986382
11.55 0.984736
11.61 0.983355
11.67 0.981267
11.73 0.980704
11.79 0.979546
11.85 0.978546
11.91 0.977725
11.97 0.97807

