0.03 0
0.09 0
0.15 0
0.21 0
0.27 0
0.33 0
0.39 0
0.45 0
0.51 0
0.57 0
0.63 0
0.69 0
0.75 0
0.81 0
0.87 0
0.93 0
0.99 0
1.05 0
1.11 0
1.17 0
1.23 0
1.29 0
1.35 0
1.41 0
1.47 0
1.53 0
1.59 0
1.65 0
1.71 0
1.77 0
1.83 0
1.89 0
1.95 0
2.01 0
2.07 0
2.13 0
2.19 0
2.25 0
2.31 0
2.37 0
2.43 0
2.49 0
2.55 0
2.61 0
2.67 0
2.73 0
2.79 0
2.85 0
2.91 0
2.97 0
3.03 0
3.09 0
3.15 0
3.21 0
3.27 0
3.33 0
3.39 0
3.45 3.6712e-06
3.51 3.54676e-06
3.57 1.02856e-05
3.63 4.64261e-05
3.69 0.000170087
3.75 0.000540673
3.81 0.00149006
3.87 0.00401171
3.93 0.00873374
3.99 0.0166853
4.05 0.0286916
4.11 0.0450675
4.17 0.0664515
4.23 0.0921123
4.29 0.123452
4.35 0.160107
4.41 0.200198
4.47 0.245599
4.53 0.292807
4.59 0.341437
4.65 0.390719
4.71 0.439339
4.77 0.486217
4.83 0.534117
4.89 0.577024
4.95 0.619899
5.01 0.657348
5.07 0.693363
5.13 0.724521
5.19 0.749059
5.25 0.770747
5.31 0.790368
5.37 0.804095
5.43 0.814608
5.49 0.828291
5.55 0.8415
5.61 0.85108
5.67 0.866891
5.73 0.885003
5.79 0.905546
5.85 0.929097
5.91 0.954211
5.97 0.984576
6.03 1.01398
6.09 1.04501
6.15 1.07437
6.21 1.09584
6.27 1.12094
6.33 1.14162
6.39 1.15805
6.45 1.17335
6.51 1.18654
6.57 1.19223
6.63 1.19539
6.69 1.20137
6.75 1.19856
6.81 1.20099
6.87 1.19823
6.93 1.19447
6.99 1.19561
7.05 1.19819
7.11 1.1999
7.17 1.2016
7.23 1.20604
7.29 1.20959
7.35 1.21496
7.41 1.22146
7.47 1.22719
7.53 1.23215
7.59 1.23547
7.65 1.23996
7.71 1.24498
7.77 1.24772
7.83 1.25078
7.89 1.25064
7.95 1.24897
8.01 1.24575
8.07 1.23349
8.13 1.2228
8.19 1.20812
8.25 1.1899
8.31 1.17253
8.37 1.15358
8.43 1.13573
8.49 1.12166
8.55 1.10799
8.61 1.09623
8.67 1.08409
8.73 1.07535
8.79 1.06568
8.85 1.05748
8.91 1.05118
8.97 1.04243
9.03 1.0349
9.09 1.02811
9.15 1.02014
9.21 1.01171
9.27 1.00562
9.33 0.996931
9.39 0.99114
9.45 0.982686
9.51 0.980041
9.57 0.973814
9.63 0.969787
9.69 0.965534
9.75 0.963036
9.81 0.959251
9.87 0.958097
9.93 0.954477
9.99 0.955431
10.05 0.953172
10.11 0.951051
10.17 0.950648
10.23 0.949887
10.29 0.949506
10.35 0.947917
10.41 0.947319
10.47 0.946054
10.53 0.944878
10.59 0.944873
10.65 0.943526
10.71 0.942462
10.77 0.942447
10.83 0.942414
10.89 0.940812
10.95 0.94079
11.01 0.94182
11.07 0.941077
11.13 0.941211
11.19 0.941035
11.25 0.941042
11.31 0.941799
11.37 0.941868
11.43 0.941178
11.49 0.943723
11.55 0.943261
11.61 0.945062
11.67 0.94775
11.73 0.948178
11.79 0.950971
11.85 0.952941
11.91 0.954595
11.97 0.958243

