0.03 0
0.09 0
0.15 0
0.21 0
0.27 0
0.33 0
0.39 0
0.45 0
0.51 0
0.57 0
0.63 0
0.69 0
0.75 0
0.81 0
0.87 0
0.93 0
0.99 0
1.05 0
1.11 0
1.17 0
1.23 0
1.29 0
1.35 0
1.41 0
1.47 0
1.53 0
1.59 0
1.65 0
1.71 0
1.77 0
1.83 0
1.89 0
1.95 0
2.01 0
2.07 0
2.13 0
2.19 0
2.25 0
2.31 0
2.37 0
2.43 0
2.49 0
2.55 0
2.61 1.21473e-05
2.67 8.02853e-05
2.73 0.000493155
2.79 0.00200518
2.85 0.00647044
2.91 0.0168801
2.97 0.0374621
3.03 0.0735443
3.09 0.128517
3.15 0.205924
3.21 0.303926
3.27 0.416945
3.33 0.542279
3.39 0.673823
3.45 0.807756
3.51 0.943479
3.57 1.07729
3.63 1.20907
3.69 1.33474
3.75 1.45093
3.81 1.54843
3.87 1.62456
3.93 1.67487
3.99 1.70122
4.05 1.70494
4.11 1.69414
4.17 1.67067
4.23 1.64021
4.29 1.60561
4.35 1.56935
4.41 1.53542
4.47 1.50191
4.53 1.47235
4.59 1.44593
4.65 1.42221
4.71 1.40174
4.77 1.38524
4.83 1.37243
4.89 1.3635
4.95 1.35708
5.01 1.35509
5.07 1.3586
5.13 1.36501
5.19 1.37591
5.25 1.38985
5.31 1.4063
5.37 1.42575
5.43 1.44611
5.49 1.46604
5.55 1.48477
5.61 1.5043
5.67 1.52155
5.73 1.53759
5.79 1.55087
5.85 1.56013
5.91 1.56687
5.97 1.56821
6.03 1.56569
6.09 1.55887
6.15 1.5487
6.21 1.53483
6.27 1.5209
6.33 1.5043
6.39 1.48644
6.45 1.46726
6.51 1.446
6.57 1.42487
6.63 1.40288
6.69 1.38022
6.75 1.35667
6.81 1.33366
6.87 1.30943
6.93 1.28521
6.99 1.26167
7.05 1.23741
7.11 1.21403
7.17 1.19071
7.23 1.16643
7.29 1.1439
7.35 1.12072
7.41 1.09804
7.47 1.07593
7.53 1.05511
7.59 1.03562
7.65 1.01663
7.71 0.998339
7.77 0.982416
7.83 0.967216
7.89 0.953186
7.95 0.940022
8.01 0.928195
8.07 0.917616
8.13 0.909341
8.19 0.900629
8.25 0.893528
8.31 0.887229
8.37 0.881364
8.43 0.876864
8.49 0.872413
8.55 0.868598
8.61 0.865359
8.67 0.861826
8.73 0.859248
8.79 0.856286
8.85 0.854083
8.91 0.851317
8.97 0.84904
9.03 0.847088
9.09 0.844932
9.15 0.842992
9.21 0.841051
9.27 0.839064
9.33 0.837713
9.39 0.836174
9.45 0.833998
9.51 0.833195
9.57 0.831899
9.63 0.830684
9.69 0.829726
9.75 0.829217
9.81 0.828232
9.87 0.828239
9.93 0.827744
9.99 0.827347
10.05 0.826943
10.11 0.827093
10.17 0.827069
10.23 0.827086
10.29 0.827284
10.35 0.827304
10.41 0.82733
10.47 0.827264
10.53 0.827008
10.59 0.826993
10.65 0.827159
10.71 0.827361
10.77 0.827135
10.83 0.826756
10.89 0.826926
10.95 0.826897
11.01 0.826261
11.07 0.826052
11.13 0.825686
11.19 0.825346
11.25 0.824628
11.31 0.824366
11.37 0.823573
11.43 0.822916
11.49 0.822421
11.55 0.822213
11.61 0.82128
11.67 0.820563
11.73 0.819605
11.79 0.818803
11.85 0.818403
11.91 0.81757
11.97 0.817016

