0.03 0
0.09 0
0.15 0
0.21 0
0.27 0
0.33 0
0.39 0
0.45 0
0.51 0
0.57 0
0.63 0
0.69 0
0.75 0
0.81 0
0.87 0
0.93 0
0.99 0
1.05 0
1.11 0
1.17 0
1.23 0
1.29 0
1.35 0
1.41 0
1.47 0
1.53 0
1.59 0
1.65 0
1.71 0
1.77 0
1.83 0
1.89 0
1.95 0
2.01 0
2.07 0
2.13 0
2.19 0
2.25 0
2.31 0
2.37 0
2.43 0
2.49 0
2.55 0
2.61 0
2.67 4.852e-05
2.73 0.000482672
2.79 0.00262529
2.85 0.00958841
2.91 0.025977
2.97 0.0556029
3.03 0.102247
3.09 0.161359
3.15 0.232449
3.21 0.309983
3.27 0.390346
3.33 0.469485
3.39 0.542867
3.45 0.616202
3.51 0.680275
3.57 0.74147
3.63 0.791754
3.69 0.83826
3.75 0.879932
3.81 0.918787
3.87 0.958057
3.93 0.997828
3.99 1.03494
4.05 1.06552
4.11 1.07782
4.17 1.06343
4.23 1.02548
4.29 0.969191
4.35 0.90244
4.41 0.835104
4.47 0.780474
4.53 0.733986
4.59 0.701202
4.65 0.679962
4.71 0.669049
4.77 0.664652
4.83 0.665729
4.89 0.673577
4.95 0.682457
5.01 0.69392
5.07 0.708788
5.13 0.724417
5.19 0.741812
5.25 0.760158
5.31 0.779856
5.37 0.803498
5.43 0.825564
5.49 0.850697
5.55 0.875182
5.61 0.900374
5.67 0.925825
5.73 0.952818
5.79 0.975389
5.85 0.999628
5.91 1.02285
5.97 1.04412
6.03 1.06271
6.09 1.07811
6.15 1.09385
6.21 1.10259
6.27 1.11047
6.33 1.11251
6.39 1.11294
6.45 1.10955
6.51 1.1034
6.57 1.09593
6.63 1.08744
6.69 1.07604
6.75 1.06262
6.81 1.04645
6.87 1.03262
6.93 1.01649
6.99 1.00226
7.05 0.98903
7.11 0.97755
7.17 0.966676
7.23 0.959559
7.29 0.953422
7.35 0.948886
7.41 0.946652
7.47 0.944827
7.53 0.946068
7.59 0.946634
7.65 0.949481
7.71 0.95305
7.77 0.956904
7.83 0.961815
7.89 0.964513
7.95 0.970281
8.01 0.974506
8.07 0.978848
8.13 0.982524
8.19 0.987043
8.25 0.990839
8.31 0.994384
8.37 0.996562
8.43 0.999112
8.49 1.00096
8.55 1.00276
8.61 1.00281
8.67 1.00199
8.73 1.00251
8.79 1.00146
8.85 0.999785
8.91 0.99798
8.97 0.994784
9.03 0.992633
9.09 0.988986
9.15 0.986441
9.21 0.983082
9.27 0.978668
9.33 0.976607
9.39 0.973532
9.45 0.970809
9.51 0.968504
9.57 0.965509
9.63 0.964079
9.69 0.962484
9.75 0.962186
9.81 0.962373
9.87 0.963117
9.93 0.964736
9.99 0.965306
10.05 0.96706
10.11 0.970376
10.17 0.972435
10.23 0.975635
10.29 0.977737
10.35 0.981008
10.41 0.984595
10.47 0.986789
10.53 0.989458
10.59 0.992833
10.65 0.995165
10.71 0.998002
10.77 1.00034
10.83 1.00124
10.89 1.00382
10.95 1.00495
11.01 1.00551
11.07 1.00618
11.13 1.00737
11.19 1.00683
11.25 1.00733
11.31 1.00701
11.37 1.00624
11.43 1.00547
11.49 1.0048
11.55 1.00424
11.61 1.00393
11.67 1.00313
11.73 1.00268
11.79 1.00148
11.85 1.001
11.91 0.999616
11.97 0.999747

